Mon Oct 31 15:00:01 WAT 2022
              total        used        free      shared  buff/cache   available
Mem:          976Mi       162Mi       181Mi       0.0Ki       632Mi       662Mi
Swap:            0B          0B          0B
-------
Mon Oct 31 15:07:22 WAT 2022
              total        used        free      shared  buff/cache   available
Mem:          976Mi       163Mi       179Mi       0.0Ki       633Mi       661Mi
Swap:            0B          0B          0B
-------
Mon Oct 31 15:16:31 WAT 2022
              total        used        free      shared  buff/cache   available
Mem:          976Mi       163Mi       178Mi       0.0Ki       634Mi       661Mi
Swap:            0B          0B          0B
-------
Mon Oct 31 15:17:09 WAT 2022
              total        used        free      shared  buff/cache   available
Mem:          976Mi       163Mi       178Mi       0.0Ki       634Mi       661Mi
Swap:            0B          0B          0B
-------
Mon Oct 31 15:25:01 WAT 2022
              total        used        free      shared  buff/cache   available
Mem:          976Mi       166Mi       174Mi       0.0Ki       636Mi       658Mi
Swap:            0B          0B          0B
-------
Mon Oct 31 15:26:01 WAT 2022
              total        used        free      shared  buff/cache   available
Mem:          976Mi       164Mi       176Mi       0.0Ki       636Mi       660Mi
Swap:            0B          0B          0B
-------
Mon Oct 31 15:27:01 WAT 2022
              total        used        free      shared  buff/cache   available
Mem:          976Mi       164Mi       176Mi       0.0Ki       636Mi       660Mi
Swap:            0B          0B          0B
-------
Mon Oct 31 15:28:01 WAT 2022
              total        used        free      shared  buff/cache   available
Mem:          976Mi       163Mi       176Mi       0.0Ki       636Mi       661Mi
Swap:            0B          0B          0B
-------
Mon Oct 31 15:29:01 WAT 2022
              total        used        free      shared  buff/cache   available
Mem:          976Mi       174Mi       165Mi       0.0Ki       636Mi       650Mi
Swap:            0B          0B          0B
-------
